waveforms/countdown_display.vcd
$version Generated by VerilatedVcd $end
$timescale 1ns $end

 $scope module TOP $end
  $scope module countdown_tb $end
   $var wire  1 # clk $end
   $var wire 32 ( cycle_len [31:0] $end
   $var wire 32 ' delay_cnt [31:0] $end
   $var wire  1 % display_next $end
   $var wire  1 $ enable $end
   $scope module DUT $end
    $var wire  1 # clk $end
    $var wire 28 & clk_cnt [27:0] $end
    $var wire  1 % display_next $end
    $var wire  1 $ enable $end
   $upscope $end
  $upscope $end
 $upscope $end
$enddefinitions $end


#0
0#
1$
0%
b0000000000000000000000000000 &
b00000000000000000000001111101000 '
b00000000000000000000000000010100 (
#10
1#
b0000000000000000000000000001 &
#20
0#
#30
1#
b0000000000000000000000000010 &
#40
0#
#50
1#
b0000000000000000000000000011 &
#60
0#
#70
1#
b0000000000000000000000000100 &
#80
0#
#90
1#
b0000000000000000000000000101 &
#100
0#
#110
1#
b0000000000000000000000000110 &
#120
0#
#130
1#
b0000000000000000000000000111 &
#140
0#
#150
1#
b0000000000000000000000001000 &
#160
0#
#170
1#
b0000000000000000000000001001 &
#180
0#
#190
1#
b0000000000000000000000001010 &
#200
0#
#210
1#
b0000000000000000000000001011 &
#220
0#
#230
1#
b0000000000000000000000001100 &
#240
0#
#250
1#
b0000000000000000000000001101 &
#260
0#
#270
1#
b0000000000000000000000001110 &
#280
0#
#290
1#
b0000000000000000000000001111 &
#300
0#
#310
1#
b0000000000000000000000010000 &
#320
0#
#330
1#
b0000000000000000000000010001 &
#340
0#
#350
1#
b0000000000000000000000010010 &
#360
0#
#370
1#
b0000000000000000000000010011 &
#380
0#
#390
1#
b0000000000000000000000010100 &
#400
0#
#410
1#
b0000000000000000000000010101 &
#420
0#
#430
1#
b0000000000000000000000010110 &
#440
0#
#450
1#
b0000000000000000000000010111 &
#460
0#
#470
1#
b0000000000000000000000011000 &
#480
0#
#490
1#
b0000000000000000000000011001 &
#500
0#
#510
1#
b0000000000000000000000011010 &
#520
0#
#530
1#
b0000000000000000000000011011 &
#540
0#
#550
1#
b0000000000000000000000011100 &
#560
0#
#570
1#
b0000000000000000000000011101 &
#580
0#
#590
1#
b0000000000000000000000011110 &
#600
0#
#610
1#
b0000000000000000000000011111 &
#620
0#
#630
1#
b0000000000000000000000100000 &
#640
0#
#650
1#
b0000000000000000000000100001 &
#660
0#
#670
1#
b0000000000000000000000100010 &
#680
0#
#690
1#
b0000000000000000000000100011 &
#700
0#
#710
1#
b0000000000000000000000100100 &
#720
0#
#730
1#
b0000000000000000000000100101 &
#740
0#
#750
1#
b0000000000000000000000100110 &
#760
0#
#770
1#
b0000000000000000000000100111 &
#780
0#
#790
1#
b0000000000000000000000101000 &
#800
0#
#810
1#
b0000000000000000000000101001 &
#820
0#
#830
1#
b0000000000000000000000101010 &
#840
0#
#850
1#
b0000000000000000000000101011 &
#860
0#
#870
1#
b0000000000000000000000101100 &
#880
0#
#890
1#
b0000000000000000000000101101 &
#900
0#
#910
1#
b0000000000000000000000101110 &
#920
0#
#930
1#
b0000000000000000000000101111 &
#940
0#
#950
1#
b0000000000000000000000110000 &
#960
0#
#970
1#
b0000000000000000000000110001 &
#980
0#
#990
1#
b0000000000000000000000110010 &
#1000
0#
#1010
1#
b0000000000000000000000110011 &
#1020
0#
#1030
1#
b0000000000000000000000110100 &
#1040
0#
#1050
1#
b0000000000000000000000110101 &
#1060
0#
#1070
1#
b0000000000000000000000110110 &
#1080
0#
#1090
1#
b0000000000000000000000110111 &
#1100
0#
#1110
1#
b0000000000000000000000111000 &
#1120
0#
#1130
1#
b0000000000000000000000111001 &
#1140
0#
#1150
1#
b0000000000000000000000111010 &
#1160
0#
#1170
1#
b0000000000000000000000111011 &
#1180
0#
#1190
1#
b0000000000000000000000111100 &
#1200
0#
#1210
1#
b0000000000000000000000111101 &
#1220
0#
#1230
1#
b0000000000000000000000111110 &
#1240
0#
#1250
1#
b0000000000000000000000111111 &
#1260
0#
#1270
1#
b0000000000000000000001000000 &
#1280
0#
#1290
1#
b0000000000000000000001000001 &
#1300
0#
#1310
1#
b0000000000000000000001000010 &
#1320
0#
#1330
1#
b0000000000000000000001000011 &
#1340
0#
#1350
1#
b0000000000000000000001000100 &
#1360
0#
#1370
1#
b0000000000000000000001000101 &
#1380
0#
#1390
1#
b0000000000000000000001000110 &
#1400
0#
#1410
1#
b0000000000000000000001000111 &
#1420
0#
#1430
1#
b0000000000000000000001001000 &
#1440
0#
#1450
1#
b0000000000000000000001001001 &
#1460
0#
#1470
1#
b0000000000000000000001001010 &
#1480
0#
#1490
1#
b0000000000000000000001001011 &
#1500
0#
#1510
1#
b0000000000000000000001001100 &
#1520
0#
#1530
1#
b0000000000000000000001001101 &
#1540
0#
#1550
1#
b0000000000000000000001001110 &
#1560
0#
#1570
1#
b0000000000000000000001001111 &
#1580
0#
#1590
1#
b0000000000000000000001010000 &
#1600
0#
#1610
1#
b0000000000000000000001010001 &
#1620
0#
#1630
1#
b0000000000000000000001010010 &
#1640
0#
#1650
1#
b0000000000000000000001010011 &
#1660
0#
#1670
1#
b0000000000000000000001010100 &
#1680
0#
#1690
1#
b0000000000000000000001010101 &
#1700
0#
#1710
1#
b0000000000000000000001010110 &
#1720
0#
#1730
1#
b0000000000000000000001010111 &
#1740
0#
#1750
1#
b0000000000000000000001011000 &
#1760
0#
#1770
1#
b0000000000000000000001011001 &
#1780
0#
#1790
1#
b0000000000000000000001011010 &
#1800
0#
#1810
1#
b0000000000000000000001011011 &
#1820
0#
#1830
1#
b0000000000000000000001011100 &
#1840
0#
#1850
1#
b0000000000000000000001011101 &
#1860
0#
#1870
1#
b0000000000000000000001011110 &
#1880
0#
#1890
1#
b0000000000000000000001011111 &
#1900
0#
#1910
1#
b0000000000000000000001100000 &
#1920
0#
#1930
1#
b0000000000000000000001100001 &
#1940
0#
#1950
1#
b0000000000000000000001100010 &
#1960
0#
#1970
1#
b0000000000000000000001100011 &
#1980
0#
#1990
1#
b0000000000000000000001100100 &
#2000
0#
#2010
1#
b0000000000000000000001100101 &
#2020
0#
#2030
1#
b0000000000000000000001100110 &
#2040
0#
#2050
1#
b0000000000000000000001100111 &
#2060
0#
#2070
1#
b0000000000000000000001101000 &
#2080
0#
#2090
1#
b0000000000000000000001101001 &
#2100
0#
#2110
1#
b0000000000000000000001101010 &
#2120
0#
#2130
1#
b0000000000000000000001101011 &
#2140
0#
#2150
1#
b0000000000000000000001101100 &
#2160
0#
#2170
1#
b0000000000000000000001101101 &
#2180
0#
#2190
1#
b0000000000000000000001101110 &
#2200
0#
#2210
1#
b0000000000000000000001101111 &
#2220
0#
#2230
1#
b0000000000000000000001110000 &
#2240
0#
#2250
1#
b0000000000000000000001110001 &
#2260
0#
#2270
1#
b0000000000000000000001110010 &
#2280
0#
#2290
1#
b0000000000000000000001110011 &
#2300
0#
#2310
1#
b0000000000000000000001110100 &
#2320
0#
#2330
1#
b0000000000000000000001110101 &
#2340
0#
#2350
1#
b0000000000000000000001110110 &
#2360
0#
#2370
1#
b0000000000000000000001110111 &
#2380
0#
#2390
1#
b0000000000000000000001111000 &
#2400
0#
#2410
1#
b0000000000000000000001111001 &
#2420
0#
#2430
1#
b0000000000000000000001111010 &
#2440
0#
#2450
1#
b0000000000000000000001111011 &
#2460
0#
#2470
1#
b0000000000000000000001111100 &
#2480
0#
#2490
1#
b0000000000000000000001111101 &
#2500
0#
#2510
1#
b0000000000000000000001111110 &
#2520
0#
#2530
1#
b0000000000000000000001111111 &
#2540
0#
#2550
1#
b0000000000000000000010000000 &
#2560
0#
#2570
1#
b0000000000000000000010000001 &
#2580
0#
#2590
1#
b0000000000000000000010000010 &
#2600
0#
#2610
1#
b0000000000000000000010000011 &
#2620
0#
#2630
1#
b0000000000000000000010000100 &
#2640
0#
#2650
1#
b0000000000000000000010000101 &
#2660
0#
#2670
1#
b0000000000000000000010000110 &
#2680
0#
#2690
1#
b0000000000000000000010000111 &
#2700
0#
#2710
1#
b0000000000000000000010001000 &
#2720
0#
#2730
1#
b0000000000000000000010001001 &
#2740
0#
#2750
1#
b0000000000000000000010001010 &
#2760
0#
#2770
1#
b0000000000000000000010001011 &
#2780
0#
#2790
1#
b0000000000000000000010001100 &
#2800
0#
#2810
1#
b0000000000000000000010001101 &
#2820
0#
#2830
1#
b0000000000000000000010001110 &
#2840
0#
#2850
1#
b0000000000000000000010001111 &
#2860
0#
#2870
1#
b0000000000000000000010010000 &
#2880
0#
#2890
1#
b0000000000000000000010010001 &
#2900
0#
#2910
1#
b0000000000000000000010010010 &
#2920
0#
#2930
1#
b0000000000000000000010010011 &
#2940
0#
#2950
1#
b0000000000000000000010010100 &
#2960
0#
#2970
1#
b0000000000000000000010010101 &
#2980
0#
#2990
1#
b0000000000000000000010010110 &
#3000
0#
#3010
1#
b0000000000000000000010010111 &
#3020
0#
#3030
1#
b0000000000000000000010011000 &
#3040
0#
#3050
1#
b0000000000000000000010011001 &
#3060
0#
#3070
1#
b0000000000000000000010011010 &
#3080
0#
#3090
1#
b0000000000000000000010011011 &
#3100
0#
#3110
1#
b0000000000000000000010011100 &
#3120
0#
#3130
1#
b0000000000000000000010011101 &
#3140
0#
#3150
1#
b0000000000000000000010011110 &
#3160
0#
#3170
1#
b0000000000000000000010011111 &
#3180
0#
#3190
1#
b0000000000000000000010100000 &
#3200
0#
#3210
1#
b0000000000000000000010100001 &
#3220
0#
#3230
1#
b0000000000000000000010100010 &
#3240
0#
#3250
1#
b0000000000000000000010100011 &
#3260
0#
#3270
1#
b0000000000000000000010100100 &
#3280
0#
#3290
1#
b0000000000000000000010100101 &
#3300
0#
#3310
1#
b0000000000000000000010100110 &
#3320
0#
#3330
1#
b0000000000000000000010100111 &
#3340
0#
#3350
1#
b0000000000000000000010101000 &
#3360
0#
#3370
1#
b0000000000000000000010101001 &
#3380
0#
#3390
1#
b0000000000000000000010101010 &
#3400
0#
#3410
1#
b0000000000000000000010101011 &
#3420
0#
#3430
1#
b0000000000000000000010101100 &
#3440
0#
#3450
1#
b0000000000000000000010101101 &
#3460
0#
#3470
1#
b0000000000000000000010101110 &
#3480
0#
#3490
1#
b0000000000000000000010101111 &
#3500
0#
#3510
1#
b0000000000000000000010110000 &
#3520
0#
#3530
1#
b0000000000000000000010110001 &
#3540
0#
#3550
1#
b0000000000000000000010110010 &
#3560
0#
#3570
1#
b0000000000000000000010110011 &
#3580
0#
#3590
1#
b0000000000000000000010110100 &
#3600
0#
#3610
1#
b0000000000000000000010110101 &
#3620
0#
#3630
1#
b0000000000000000000010110110 &
#3640
0#
#3650
1#
b0000000000000000000010110111 &
#3660
0#
#3670
1#
b0000000000000000000010111000 &
#3680
0#
#3690
1#
b0000000000000000000010111001 &
#3700
0#
#3710
1#
b0000000000000000000010111010 &
#3720
0#
#3730
1#
b0000000000000000000010111011 &
#3740
0#
#3750
1#
b0000000000000000000010111100 &
#3760
0#
#3770
1#
b0000000000000000000010111101 &
#3780
0#
#3790
1#
b0000000000000000000010111110 &
#3800
0#
#3810
1#
b0000000000000000000010111111 &
#3820
0#
#3830
1#
b0000000000000000000011000000 &
#3840
0#
#3850
1#
b0000000000000000000011000001 &
#3860
0#
#3870
1#
b0000000000000000000011000010 &
#3880
0#
#3890
1#
b0000000000000000000011000011 &
#3900
0#
#3910
1#
b0000000000000000000011000100 &
#3920
0#
#3930
1#
b0000000000000000000011000101 &
#3940
0#
#3950
1#
b0000000000000000000011000110 &
#3960
0#
#3970
1#
b0000000000000000000011000111 &
#3980
0#
#3990
1#
b0000000000000000000011001000 &
#4000
0#
#4010
1#
b0000000000000000000011001001 &
#4020
0#
#4030
1#
b0000000000000000000011001010 &
#4040
0#
#4050
1#
b0000000000000000000011001011 &
#4060
0#
#4070
1#
b0000000000000000000011001100 &
#4080
0#
#4090
1#
b0000000000000000000011001101 &
#4100
0#
#4110
1#
b0000000000000000000011001110 &
#4120
0#
#4130
1#
b0000000000000000000011001111 &
#4140
0#
#4150
1#
b0000000000000000000011010000 &
#4160
0#
#4170
1#
b0000000000000000000011010001 &
#4180
0#
#4190
1#
b0000000000000000000011010010 &
#4200
0#
#4210
1#
b0000000000000000000011010011 &
#4220
0#
#4230
1#
b0000000000000000000011010100 &
#4240
0#
#4250
1#
b0000000000000000000011010101 &
#4260
0#
#4270
1#
b0000000000000000000011010110 &
#4280
0#
#4290
1#
b0000000000000000000011010111 &
#4300
0#
#4310
1#
b0000000000000000000011011000 &
#4320
0#
#4330
1#
b0000000000000000000011011001 &
#4340
0#
#4350
1#
b0000000000000000000011011010 &
#4360
0#
#4370
1#
b0000000000000000000011011011 &
#4380
0#
#4390
1#
b0000000000000000000011011100 &
#4400
0#
#4410
1#
b0000000000000000000011011101 &
#4420
0#
#4430
1#
b0000000000000000000011011110 &
#4440
0#
#4450
1#
b0000000000000000000011011111 &
#4460
0#
#4470
1#
b0000000000000000000011100000 &
#4480
0#
#4490
1#
b0000000000000000000011100001 &
#4500
0#
#4510
1#
b0000000000000000000011100010 &
#4520
0#
#4530
1#
b0000000000000000000011100011 &
#4540
0#
#4550
1#
b0000000000000000000011100100 &
#4560
0#
#4570
1#
b0000000000000000000011100101 &
#4580
0#
#4590
1#
b0000000000000000000011100110 &
#4600
0#
#4610
1#
b0000000000000000000011100111 &
#4620
0#
#4630
1#
b0000000000000000000011101000 &
#4640
0#
#4650
1#
b0000000000000000000011101001 &
#4660
0#
#4670
1#
b0000000000000000000011101010 &
#4680
0#
#4690
1#
b0000000000000000000011101011 &
#4700
0#
#4710
1#
b0000000000000000000011101100 &
#4720
0#
#4730
1#
b0000000000000000000011101101 &
#4740
0#
#4750
1#
b0000000000000000000011101110 &
#4760
0#
#4770
1#
b0000000000000000000011101111 &
#4780
0#
#4790
1#
b0000000000000000000011110000 &
#4800
0#
#4810
1#
b0000000000000000000011110001 &
#4820
0#
#4830
1#
b0000000000000000000011110010 &
#4840
0#
#4850
1#
b0000000000000000000011110011 &
#4860
0#
#4870
1#
b0000000000000000000011110100 &
#4880
0#
#4890
1#
b0000000000000000000011110101 &
#4900
0#
#4910
1#
b0000000000000000000011110110 &
#4920
0#
#4930
1#
b0000000000000000000011110111 &
#4940
0#
#4950
1#
b0000000000000000000011111000 &
#4960
0#
#4970
1#
b0000000000000000000011111001 &
#4980
0#
#4990
1#
b0000000000000000000011111010 &
#5000
0#
#5010
1#
b0000000000000000000011111011 &
#5020
0#
#5030
1#
b0000000000000000000011111100 &
#5040
0#
#5050
1#
b0000000000000000000011111101 &
#5060
0#
#5070
1#
b0000000000000000000011111110 &
#5080
0#
#5090
1#
b0000000000000000000011111111 &
#5100
0#
#5110
1#
b0000000000000000000100000000 &
#5120
0#
#5130
1#
b0000000000000000000100000001 &
#5140
0#
#5150
1#
b0000000000000000000100000010 &
#5160
0#
#5170
1#
b0000000000000000000100000011 &
#5180
0#
#5190
1#
b0000000000000000000100000100 &
#5200
0#
#5210
1#
b0000000000000000000100000101 &
#5220
0#
#5230
1#
b0000000000000000000100000110 &
#5240
0#
#5250
1#
b0000000000000000000100000111 &
#5260
0#
#5270
1#
b0000000000000000000100001000 &
#5280
0#
#5290
1#
b0000000000000000000100001001 &
#5300
0#
#5310
1#
b0000000000000000000100001010 &
#5320
0#
#5330
1#
b0000000000000000000100001011 &
#5340
0#
#5350
1#
b0000000000000000000100001100 &
#5360
0#
#5370
1#
b0000000000000000000100001101 &
#5380
0#
#5390
1#
b0000000000000000000100001110 &
#5400
0#
#5410
1#
b0000000000000000000100001111 &
#5420
0#
#5430
1#
b0000000000000000000100010000 &
#5440
0#
#5450
1#
b0000000000000000000100010001 &
#5460
0#
#5470
1#
b0000000000000000000100010010 &
#5480
0#
#5490
1#
b0000000000000000000100010011 &
#5500
0#
#5510
1#
b0000000000000000000100010100 &
#5520
0#
#5530
1#
b0000000000000000000100010101 &
#5540
0#
#5550
1#
b0000000000000000000100010110 &
#5560
0#
#5570
1#
b0000000000000000000100010111 &
#5580
0#
#5590
1#
b0000000000000000000100011000 &
#5600
0#
#5610
1#
b0000000000000000000100011001 &
#5620
0#
#5630
1#
b0000000000000000000100011010 &
#5640
0#
#5650
1#
b0000000000000000000100011011 &
#5660
0#
#5670
1#
b0000000000000000000100011100 &
#5680
0#
#5690
1#
b0000000000000000000100011101 &
#5700
0#
#5710
1#
b0000000000000000000100011110 &
#5720
0#
#5730
1#
b0000000000000000000100011111 &
#5740
0#
#5750
1#
b0000000000000000000100100000 &
#5760
0#
#5770
1#
b0000000000000000000100100001 &
#5780
0#
#5790
1#
b0000000000000000000100100010 &
#5800
0#
#5810
1#
b0000000000000000000100100011 &
#5820
0#
#5830
1#
b0000000000000000000100100100 &
#5840
0#
#5850
1#
b0000000000000000000100100101 &
#5860
0#
#5870
1#
b0000000000000000000100100110 &
#5880
0#
#5890
1#
b0000000000000000000100100111 &
#5900
0#
#5910
1#
b0000000000000000000100101000 &
#5920
0#
#5930
1#
b0000000000000000000100101001 &
#5940
0#
#5950
1#
b0000000000000000000100101010 &
#5960
0#
#5970
1#
b0000000000000000000100101011 &
#5980
0#
#5990
1#
b0000000000000000000100101100 &
#6000
0#
#6010
1#
b0000000000000000000100101101 &
#6020
0#
#6030
1#
b0000000000000000000100101110 &
#6040
0#
#6050
1#
b0000000000000000000100101111 &
#6060
0#
#6070
1#
b0000000000000000000100110000 &
#6080
0#
#6090
1#
b0000000000000000000100110001 &
#6100
0#
#6110
1#
b0000000000000000000100110010 &
#6120
0#
#6130
1#
b0000000000000000000100110011 &
#6140
0#
#6150
1#
b0000000000000000000100110100 &
#6160
0#
#6170
1#
b0000000000000000000100110101 &
#6180
0#
#6190
1#
b0000000000000000000100110110 &
#6200
0#
#6210
1#
b0000000000000000000100110111 &
#6220
0#
#6230
1#
b0000000000000000000100111000 &
#6240
0#
#6250
1#
b0000000000000000000100111001 &
#6260
0#
#6270
1#
b0000000000000000000100111010 &
#6280
0#
#6290
1#
b0000000000000000000100111011 &
#6300
0#
#6310
1#
b0000000000000000000100111100 &
#6320
0#
#6330
1#
b0000000000000000000100111101 &
#6340
0#
#6350
1#
b0000000000000000000100111110 &
#6360
0#
#6370
1#
b0000000000000000000100111111 &
#6380
0#
#6390
1#
b0000000000000000000101000000 &
#6400
0#
#6410
1#
b0000000000000000000101000001 &
#6420
0#
#6430
1#
b0000000000000000000101000010 &
#6440
0#
#6450
1#
b0000000000000000000101000011 &
#6460
0#
#6470
1#
b0000000000000000000101000100 &
#6480
0#
#6490
1#
b0000000000000000000101000101 &
#6500
0#
#6510
1#
b0000000000000000000101000110 &
#6520
0#
#6530
1#
b0000000000000000000101000111 &
#6540
0#
#6550
1#
b0000000000000000000101001000 &
#6560
0#
#6570
1#
b0000000000000000000101001001 &
#6580
0#
#6590
1#
b0000000000000000000101001010 &
#6600
0#
#6610
1#
b0000000000000000000101001011 &
#6620
0#
#6630
1#
b0000000000000000000101001100 &
#6640
0#
#6650
1#
b0000000000000000000101001101 &
#6660
0#
#6670
1#
b0000000000000000000101001110 &
#6680
0#
#6690
1#
b0000000000000000000101001111 &
#6700
0#
#6710
1#
b0000000000000000000101010000 &
#6720
0#
#6730
1#
b0000000000000000000101010001 &
#6740
0#
#6750
1#
b0000000000000000000101010010 &
#6760
0#
#6770
1#
b0000000000000000000101010011 &
#6780
0#
#6790
1#
b0000000000000000000101010100 &
#6800
0#
#6810
1#
b0000000000000000000101010101 &
#6820
0#
#6830
1#
b0000000000000000000101010110 &
#6840
0#
#6850
1#
b0000000000000000000101010111 &
#6860
0#
#6870
1#
b0000000000000000000101011000 &
#6880
0#
#6890
1#
b0000000000000000000101011001 &
#6900
0#
#6910
1#
b0000000000000000000101011010 &
#6920
0#
#6930
1#
b0000000000000000000101011011 &
#6940
0#
#6950
1#
b0000000000000000000101011100 &
#6960
0#
#6970
1#
b0000000000000000000101011101 &
#6980
0#
#6990
1#
b0000000000000000000101011110 &
#7000
0#
#7010
1#
b0000000000000000000101011111 &
#7020
0#
#7030
1#
b0000000000000000000101100000 &
#7040
0#
#7050
1#
b0000000000000000000101100001 &
#7060
0#
#7070
1#
b0000000000000000000101100010 &
#7080
0#
#7090
1#
b0000000000000000000101100011 &
#7100
0#
#7110
1#
b0000000000000000000101100100 &
#7120
0#
#7130
1#
b0000000000000000000101100101 &
#7140
0#
#7150
1#
b0000000000000000000101100110 &
#7160
0#
#7170
1#
b0000000000000000000101100111 &
#7180
0#
#7190
1#
b0000000000000000000101101000 &
#7200
0#
#7210
1#
b0000000000000000000101101001 &
#7220
0#
#7230
1#
b0000000000000000000101101010 &
#7240
0#
#7250
1#
b0000000000000000000101101011 &
#7260
0#
#7270
1#
b0000000000000000000101101100 &
#7280
0#
#7290
1#
b0000000000000000000101101101 &
#7300
0#
#7310
1#
b0000000000000000000101101110 &
#7320
0#
#7330
1#
b0000000000000000000101101111 &
#7340
0#
#7350
1#
b0000000000000000000101110000 &
#7360
0#
#7370
1#
b0000000000000000000101110001 &
#7380
0#
#7390
1#
b0000000000000000000101110010 &
#7400
0#
#7410
1#
b0000000000000000000101110011 &
#7420
0#
#7430
1#
b0000000000000000000101110100 &
#7440
0#
#7450
1#
b0000000000000000000101110101 &
#7460
0#
#7470
1#
b0000000000000000000101110110 &
#7480
0#
#7490
1#
b0000000000000000000101110111 &
#7500
0#
#7510
1#
b0000000000000000000101111000 &
#7520
0#
#7530
1#
b0000000000000000000101111001 &
#7540
0#
#7550
1#
b0000000000000000000101111010 &
#7560
0#
#7570
1#
b0000000000000000000101111011 &
#7580
0#
#7590
1#
b0000000000000000000101111100 &
#7600
0#
#7610
1#
b0000000000000000000101111101 &
#7620
0#
#7630
1#
b0000000000000000000101111110 &
#7640
0#
#7650
1#
b0000000000000000000101111111 &
#7660
0#
#7670
1#
b0000000000000000000110000000 &
#7680
0#
#7690
1#
b0000000000000000000110000001 &
#7700
0#
#7710
1#
b0000000000000000000110000010 &
#7720
0#
#7730
1#
b0000000000000000000110000011 &
#7740
0#
#7750
1#
b0000000000000000000110000100 &
#7760
0#
#7770
1#
b0000000000000000000110000101 &
#7780
0#
#7790
1#
b0000000000000000000110000110 &
#7800
0#
#7810
1#
b0000000000000000000110000111 &
#7820
0#
#7830
1#
b0000000000000000000110001000 &
#7840
0#
#7850
1#
b0000000000000000000110001001 &
#7860
0#
#7870
1#
b0000000000000000000110001010 &
#7880
0#
#7890
1#
b0000000000000000000110001011 &
#7900
0#
#7910
1#
b0000000000000000000110001100 &
#7920
0#
#7930
1#
b0000000000000000000110001101 &
#7940
0#
#7950
1#
b0000000000000000000110001110 &
#7960
0#
#7970
1#
b0000000000000000000110001111 &
#7980
0#
#7990
1#
b0000000000000000000110010000 &
#8000
0#
#8010
1#
b0000000000000000000110010001 &
#8020
0#
#8030
1#
b0000000000000000000110010010 &
#8040
0#
#8050
1#
b0000000000000000000110010011 &
#8060
0#
#8070
1#
b0000000000000000000110010100 &
#8080
0#
#8090
1#
b0000000000000000000110010101 &
#8100
0#
#8110
1#
b0000000000000000000110010110 &
#8120
0#
#8130
1#
b0000000000000000000110010111 &
#8140
0#
#8150
1#
b0000000000000000000110011000 &
#8160
0#
#8170
1#
b0000000000000000000110011001 &
#8180
0#
#8190
1#
b0000000000000000000110011010 &
#8200
0#
#8210
1#
b0000000000000000000110011011 &
#8220
0#
#8230
1#
b0000000000000000000110011100 &
#8240
0#
#8250
1#
b0000000000000000000110011101 &
#8260
0#
#8270
1#
b0000000000000000000110011110 &
#8280
0#
#8290
1#
b0000000000000000000110011111 &
#8300
0#
#8310
1#
b0000000000000000000110100000 &
#8320
0#
#8330
1#
b0000000000000000000110100001 &
#8340
0#
#8350
1#
b0000000000000000000110100010 &
#8360
0#
#8370
1#
b0000000000000000000110100011 &
#8380
0#
#8390
1#
b0000000000000000000110100100 &
#8400
0#
#8410
1#
b0000000000000000000110100101 &
#8420
0#
#8430
1#
b0000000000000000000110100110 &
#8440
0#
#8450
1#
b0000000000000000000110100111 &
#8460
0#
#8470
1#
b0000000000000000000110101000 &
#8480
0#
#8490
1#
b0000000000000000000110101001 &
#8500
0#
#8510
1#
b0000000000000000000110101010 &
#8520
0#
#8530
1#
b0000000000000000000110101011 &
#8540
0#
#8550
1#
b0000000000000000000110101100 &
#8560
0#
#8570
1#
b0000000000000000000110101101 &
#8580
0#
#8590
1#
b0000000000000000000110101110 &
#8600
0#
#8610
1#
b0000000000000000000110101111 &
#8620
0#
#8630
1#
b0000000000000000000110110000 &
#8640
0#
#8650
1#
b0000000000000000000110110001 &
#8660
0#
#8670
1#
b0000000000000000000110110010 &
#8680
0#
#8690
1#
b0000000000000000000110110011 &
#8700
0#
#8710
1#
b0000000000000000000110110100 &
#8720
0#
#8730
1#
b0000000000000000000110110101 &
#8740
0#
#8750
1#
b0000000000000000000110110110 &
#8760
0#
#8770
1#
b0000000000000000000110110111 &
#8780
0#
#8790
1#
b0000000000000000000110111000 &
#8800
0#
#8810
1#
b0000000000000000000110111001 &
#8820
0#
#8830
1#
b0000000000000000000110111010 &
#8840
0#
#8850
1#
b0000000000000000000110111011 &
#8860
0#
#8870
1#
b0000000000000000000110111100 &
#8880
0#
#8890
1#
b0000000000000000000110111101 &
#8900
0#
#8910
1#
b0000000000000000000110111110 &
#8920
0#
#8930
1#
b0000000000000000000110111111 &
#8940
0#
#8950
1#
b0000000000000000000111000000 &
#8960
0#
#8970
1#
b0000000000000000000111000001 &
#8980
0#
#8990
1#
b0000000000000000000111000010 &
#9000
0#
#9010
1#
b0000000000000000000111000011 &
#9020
0#
#9030
1#
b0000000000000000000111000100 &
#9040
0#
#9050
1#
b0000000000000000000111000101 &
#9060
0#
#9070
1#
b0000000000000000000111000110 &
#9080
0#
#9090
1#
b0000000000000000000111000111 &
#9100
0#
#9110
1#
b0000000000000000000111001000 &
#9120
0#
#9130
1#
b0000000000000000000111001001 &
#9140
0#
#9150
1#
b0000000000000000000111001010 &
#9160
0#
#9170
1#
b0000000000000000000111001011 &
#9180
0#
#9190
1#
b0000000000000000000111001100 &
#9200
0#
#9210
1#
b0000000000000000000111001101 &
#9220
0#
#9230
1#
b0000000000000000000111001110 &
#9240
0#
#9250
1#
b0000000000000000000111001111 &
#9260
0#
#9270
1#
b0000000000000000000111010000 &
#9280
0#
#9290
1#
b0000000000000000000111010001 &
#9300
0#
#9310
1#
b0000000000000000000111010010 &
#9320
0#
#9330
1#
b0000000000000000000111010011 &
#9340
0#
#9350
1#
b0000000000000000000111010100 &
#9360
0#
#9370
1#
b0000000000000000000111010101 &
#9380
0#
#9390
1#
b0000000000000000000111010110 &
#9400
0#
#9410
1#
b0000000000000000000111010111 &
#9420
0#
#9430
1#
b0000000000000000000111011000 &
#9440
0#
#9450
1#
b0000000000000000000111011001 &
#9460
0#
#9470
1#
b0000000000000000000111011010 &
#9480
0#
#9490
1#
b0000000000000000000111011011 &
#9500
0#
#9510
1#
b0000000000000000000111011100 &
#9520
0#
#9530
1#
b0000000000000000000111011101 &
#9540
0#
#9550
1#
b0000000000000000000111011110 &
#9560
0#
#9570
1#
b0000000000000000000111011111 &
#9580
0#
#9590
1#
b0000000000000000000111100000 &
#9600
0#
#9610
1#
b0000000000000000000111100001 &
#9620
0#
#9630
1#
b0000000000000000000111100010 &
#9640
0#
#9650
1#
b0000000000000000000111100011 &
#9660
0#
#9670
1#
b0000000000000000000111100100 &
#9680
0#
#9690
1#
b0000000000000000000111100101 &
#9700
0#
#9710
1#
b0000000000000000000111100110 &
#9720
0#
#9730
1#
b0000000000000000000111100111 &
#9740
0#
#9750
1#
b0000000000000000000111101000 &
#9760
0#
#9770
1#
b0000000000000000000111101001 &
#9780
0#
#9790
1#
b0000000000000000000111101010 &
#9800
0#
#9810
1#
b0000000000000000000111101011 &
#9820
0#
#9830
1#
b0000000000000000000111101100 &
#9840
0#
#9850
1#
b0000000000000000000111101101 &
#9860
0#
#9870
1#
b0000000000000000000111101110 &
#9880
0#
#9890
1#
b0000000000000000000111101111 &
#9900
0#
#9910
1#
b0000000000000000000111110000 &
#9920
0#
#9930
1#
b0000000000000000000111110001 &
#9940
0#
#9950
1#
b0000000000000000000111110010 &
#9960
0#
#9970
1#
b0000000000000000000111110011 &
#9980
0#
#9990
1#
b0000000000000000000111110100 &
#10000
0#
#10010
1#
b0000000000000000000111110101 &
#10020
0#
#10030
1#
b0000000000000000000111110110 &
#10040
0#
#10050
1#
b0000000000000000000111110111 &
#10060
0#
#10070
1#
b0000000000000000000111111000 &
#10080
0#
#10090
1#
b0000000000000000000111111001 &
#10100
0#
#10110
1#
b0000000000000000000111111010 &
#10120
0#
#10130
1#
b0000000000000000000111111011 &
#10140
0#
#10150
1#
b0000000000000000000111111100 &
#10160
0#
#10170
1#
b0000000000000000000111111101 &
#10180
0#
#10190
1#
b0000000000000000000111111110 &
#10200
0#
#10210
1#
b0000000000000000000111111111 &
#10220
0#
#10230
1#
b0000000000000000001000000000 &
#10240
0#
#10250
1#
b0000000000000000001000000001 &
#10260
0#
#10270
1#
b0000000000000000001000000010 &
#10280
0#
#10290
1#
b0000000000000000001000000011 &
#10300
0#
#10310
1#
b0000000000000000001000000100 &
#10320
0#
#10330
1#
b0000000000000000001000000101 &
#10340
0#
#10350
1#
b0000000000000000001000000110 &
#10360
0#
#10370
1#
b0000000000000000001000000111 &
#10380
0#
#10390
1#
b0000000000000000001000001000 &
#10400
0#
#10410
1#
b0000000000000000001000001001 &
#10420
0#
#10430
1#
b0000000000000000001000001010 &
#10440
0#
#10450
1#
b0000000000000000001000001011 &
#10460
0#
#10470
1#
b0000000000000000001000001100 &
#10480
0#
#10490
1#
b0000000000000000001000001101 &
#10500
0#
#10510
1#
b0000000000000000001000001110 &
#10520
0#
#10530
1#
b0000000000000000001000001111 &
#10540
0#
