waveforms/direction_display.vcd
$version Generated by VerilatedVcd $end
$timescale 1ns $end

 $scope module TOP $end
  $scope module FSM_tb $end
   $var wire  1 I CLOCK50 $end
   $var wire  7 ) HEX0 [6:0] $end
   $var wire  7 * HEX1 [6:0] $end
   $var wire  7 + HEX2 [6:0] $end
   $var wire  7 , HEX3 [6:0] $end
   $var wire  4 # KEY [3:0] $end
   $var wire 18 - LEDR [17:0] $end
   $var wire  4 $ SW [3:0] $end
   $scope module DUT $end
    $var wire  1 I CLOCK50 $end
    $var wire  7 ) HEX0 [6:0] $end
    $var wire  7 * HEX1 [6:0] $end
    $var wire  7 + HEX2 [6:0] $end
    $var wire  7 , HEX3 [6:0] $end
    $var wire  4 # KEY [3:0] $end
    $var wire 18 - LEDR [17:0] $end
    $var wire  4 $ SW [3:0] $end
    $var wire  1 1 delete $end
    $var wire  1 6 empty $end
    $var wire  1 / execute $end
    $var wire  1 7 full $end
    $var wire  4 5 instruction [3:0] $end
    $var wire  1 3 read_enable $end
    $var wire  1 0 reset $end
    $var wire  1 . save $end
    $var wire 32 9 state [31:0] $end
    $var wire  1 8 timer $end
    $var wire  1 4 timer_enable $end
    $var wire  1 2 write_enable $end
    $scope module u0 $end
     $var wire  1 % button $end
     $var wire  1 1 button_pressed $end
     $var wire  1 I clk $end
     $var wire 32 : count [31:0] $end
     $var wire  1 ; deb $end
     $var wire 32 J delay_val [31:0] $end
    $upscope $end
    $scope module u1 $end
     $var wire  1 & button $end
     $var wire  1 0 button_pressed $end
     $var wire  1 I clk $end
     $var wire 32 < count [31:0] $end
     $var wire  1 = deb $end
     $var wire 32 J delay_val [31:0] $end
    $upscope $end
    $scope module u2 $end
     $var wire  1 ' button $end
     $var wire  1 / button_pressed $end
     $var wire  1 I clk $end
     $var wire 32 > count [31:0] $end
     $var wire  1 ? deb $end
     $var wire 32 J delay_val [31:0] $end
    $upscope $end
    $scope module u3 $end
     $var wire  1 ( button $end
     $var wire  1 . button_pressed $end
     $var wire  1 I clk $end
     $var wire 32 @ count [31:0] $end
     $var wire  1 A deb $end
     $var wire 32 J delay_val [31:0] $end
    $upscope $end
    $scope module u5 $end
     $var wire  1 I clk $end
     $var wire  4 $ data_in [3:0] $end
     $var wire  4 5 data_out [3:0] $end
     $var wire  1 1 del $end
     $var wire  1 6 empty $end
     $var wire  1 7 full $end
     $var wire  8 B r_ptr [7:0] $end
     $var wire  1 3 re $end
     $var wire  1 0 rst $end
     $var wire  8 C w_ptr [7:0] $end
     $var wire  1 2 we $end
    $upscope $end
    $scope module u6 $end
     $var wire  1 4 enable $end
     $var wire  4 O full [3:0] $end
     $var wire  4 M half [3:0] $end
     $var wire  2 D instruction [1:0] $end
     $var wire  9 F left_LED [8:0] $end
     $var wire  4 L quart [3:0] $end
     $var wire  9 G right_LED [8:0] $end
     $var wire  4 N three_quart [3:0] $end
     $var wire  2 E torque [1:0] $end
     $var wire  4 K zero [3:0] $end
    $upscope $end
    $scope module u7 $end
     $var wire  7 ) HEX0 [6:0] $end
     $var wire  7 * HEX1 [6:0] $end
     $var wire  7 + HEX2 [6:0] $end
     $var wire  7 , HEX3 [6:0] $end
     $var wire  2 D direc [1:0] $end
     $var wire  1 4 enable $end
    $upscope $end
    $scope module u8 $end
     $var wire  1 I clk $end
     $var wire 28 H clk_cnt [27:0] $end
     $var wire  1 4 enable $end
     $var wire  1 8 timer $end
    $upscope $end
   $upscope $end
  $upscope $end
 $upscope $end
$enddefinitions $end


#0
b0000 #
b0000 $
0%
0&
0'
0(
b1111111 )
b1111111 *
b1111111 +
b1111111 ,
b000000000000000000 -
0.
0/
00
01
02
03
04
b0000 5
16
07
08
b00000000000000000000000000000000 9
b00000000000000000000000000000000 :
0;
b00000000000000000000000000000000 <
0=
b00000000000000000000000000000000 >
0?
b00000000000000000000000000000000 @
0A
b00000000 B
b00000000 C
b00 D
b00 E
b000000000 F
b000000000 G
b0000000000000000000000000000 H
0I
b00000000000000000000100111000100 J
b0000 K
b0010 L
b1000 M
b1100 N
b1111 O
#10
b00000000000000000000000000000001 :
b00000000000000000000000000000001 <
b00000000000000000000000000000001 >
b00000000000000000000000000000001 @
1I
#20
0I
#30
b00000000000000000000000000000010 :
b00000000000000000000000000000010 <
b00000000000000000000000000000010 >
b00000000000000000000000000000010 @
1I
#40
b1000 #
1(
0I
#50
b0000 #
0(
b00000000000000000000000000000011 :
b00000000000000000000000000000011 <
b00000000000000000000000000000011 >
b00000000000000000000000000000011 @
1I
#60
0I
#70
b00000000000000000000000000000100 :
b00000000000000000000000000000100 <
b00000000000000000000000000000100 >
b00000000000000000000000000000100 @
1I
#80
0I
#90
b1000 #
b0100 $
1(
b00000000000000000000000000000101 :
b00000000000000000000000000000101 <
b00000000000000000000000000000101 >
b00000000000000000000000000000000 @
1A
1I
#100
b0000 #
0(
0I
#110
b00000000000000000000000000000110 :
b00000000000000000000000000000110 <
b00000000000000000000000000000110 >
0A
1I
#120
0I
#130
b00000000000000000000000000000111 :
b00000000000000000000000000000111 <
b00000000000000000000000000000111 >
b00000000000000000000000000000001 @
1I
#140
b1000 #
b1000 $
1(
0I
#150
b0000 #
0(
b00000000000000000000000000001000 :
b00000000000000000000000000001000 <
b00000000000000000000000000001000 >
b00000000000000000000000000000010 @
1I
#160
0I
#170
b00000000000000000000000000001001 :
b00000000000000000000000000001001 <
b00000000000000000000000000001001 >
b00000000000000000000000000000011 @
1I
#180
0I
#190
b1000 #
b1100 $
1(
b00000000000000000000000000001010 :
b00000000000000000000000000001010 <
b00000000000000000000000000001010 >
b00000000000000000000000000000000 @
1A
1I
#200
b0000 #
0(
0I
#210
b00000000000000000000000000001011 :
b00000000000000000000000000001011 <
b00000000000000000000000000001011 >
0A
1I
#220
0I
#230
b00000000000000000000000000001100 :
b00000000000000000000000000001100 <
b00000000000000000000000000001100 >
b00000000000000000000000000000001 @
1I
#240
b1000 #
b1010 $
1(
0I
#250
b0000 #
0(
b00000000000000000000000000001101 :
b00000000000000000000000000001101 <
b00000000000000000000000000001101 >
b00000000000000000000000000000010 @
1I
#260
0I
#270
b00000000000000000000000000001110 :
b00000000000000000000000000001110 <
b00000000000000000000000000001110 >
b00000000000000000000000000000011 @
1I
#280
0I
#290
b0100 #
1'
b00000000000000000000000000001111 :
b00000000000000000000000000001111 <
b00000000000000000000000000000000 >
1?
b00000000000000000000000000000100 @
1I
#300
b0000 #
0'
0I
#310
b00000000000000000000000000010000 :
b00000000000000000000000000010000 <
0?
b00000000000000000000000000000101 @
1I
#320
0I
#330
b00000000000000000000000000010001 :
b00000000000000000000000000010001 <
b00000000000000000000000000000001 >
b00000000000000000000000000000110 @
1I
#340
0I
#350
b00000000000000000000000000010010 :
b00000000000000000000000000010010 <
b00000000000000000000000000000010 >
b00000000000000000000000000000111 @
1I
#360
0I
#370
b00000000000000000000000000010011 :
b00000000000000000000000000010011 <
b00000000000000000000000000000011 >
b00000000000000000000000000001000 @
1I
#380
0I
#390
b00000000000000000000000000010100 :
b00000000000000000000000000010100 <
b00000000000000000000000000000100 >
b00000000000000000000000000001001 @
1I
#400
0I
#410
b00000000000000000000000000010101 :
b00000000000000000000000000010101 <
b00000000000000000000000000000101 >
b00000000000000000000000000001010 @
1I
#420
0I
#430
b00000000000000000000000000010110 :
b00000000000000000000000000010110 <
b00000000000000000000000000000110 >
b00000000000000000000000000001011 @
1I
#440
0I
#450
b00000000000000000000000000010111 :
b00000000000000000000000000010111 <
b00000000000000000000000000000111 >
b00000000000000000000000000001100 @
1I
#460
0I
#470
b00000000000000000000000000011000 :
b00000000000000000000000000011000 <
b00000000000000000000000000001000 >
b00000000000000000000000000001101 @
1I
#480
0I
#490
b00000000000000000000000000011001 :
b00000000000000000000000000011001 <
b00000000000000000000000000001001 >
b00000000000000000000000000001110 @
1I
#500
0I
#510
b00000000000000000000000000011010 :
b00000000000000000000000000011010 <
b00000000000000000000000000001010 >
b00000000000000000000000000001111 @
1I
#520
0I
#530
b00000000000000000000000000011011 :
b00000000000000000000000000011011 <
b00000000000000000000000000001011 >
b00000000000000000000000000010000 @
1I
#540
0I
#550
b00000000000000000000000000011100 :
b00000000000000000000000000011100 <
b00000000000000000000000000001100 >
b00000000000000000000000000010001 @
1I
#560
0I
#570
b00000000000000000000000000011101 :
b00000000000000000000000000011101 <
b00000000000000000000000000001101 >
b00000000000000000000000000010010 @
1I
#580
0I
#590
b00000000000000000000000000011110 :
b00000000000000000000000000011110 <
b00000000000000000000000000001110 >
b00000000000000000000000000010011 @
1I
#600
0I
#610
b00000000000000000000000000011111 :
b00000000000000000000000000011111 <
b00000000000000000000000000001111 >
b00000000000000000000000000010100 @
1I
#620
0I
#630
b00000000000000000000000000100000 :
b00000000000000000000000000100000 <
b00000000000000000000000000010000 >
b00000000000000000000000000010101 @
1I
#640
0I
#650
b00000000000000000000000000100001 :
b00000000000000000000000000100001 <
b00000000000000000000000000010001 >
b00000000000000000000000000010110 @
1I
#660
0I
#670
b00000000000000000000000000100010 :
b00000000000000000000000000100010 <
b00000000000000000000000000010010 >
b00000000000000000000000000010111 @
1I
#680
0I
#690
b00000000000000000000000000100011 :
b00000000000000000000000000100011 <
b00000000000000000000000000010011 >
b00000000000000000000000000011000 @
1I
#700
0I
#710
b00000000000000000000000000100100 :
b00000000000000000000000000100100 <
b00000000000000000000000000010100 >
b00000000000000000000000000011001 @
1I
#720
0I
#730
b00000000000000000000000000100101 :
b00000000000000000000000000100101 <
b00000000000000000000000000010101 >
b00000000000000000000000000011010 @
1I
#740
0I
#750
b00000000000000000000000000100110 :
b00000000000000000000000000100110 <
b00000000000000000000000000010110 >
b00000000000000000000000000011011 @
1I
#760
0I
#770
b00000000000000000000000000100111 :
b00000000000000000000000000100111 <
b00000000000000000000000000010111 >
b00000000000000000000000000011100 @
1I
#780
0I
#790
b00000000000000000000000000101000 :
b00000000000000000000000000101000 <
b00000000000000000000000000011000 >
b00000000000000000000000000011101 @
1I
#800
0I
#810
b00000000000000000000000000101001 :
b00000000000000000000000000101001 <
b00000000000000000000000000011001 >
b00000000000000000000000000011110 @
1I
#820
0I
#830
b00000000000000000000000000101010 :
b00000000000000000000000000101010 <
b00000000000000000000000000011010 >
b00000000000000000000000000011111 @
1I
#840
0I
#850
b00000000000000000000000000101011 :
b00000000000000000000000000101011 <
b00000000000000000000000000011011 >
b00000000000000000000000000100000 @
1I
#860
0I
#870
b00000000000000000000000000101100 :
b00000000000000000000000000101100 <
b00000000000000000000000000011100 >
b00000000000000000000000000100001 @
1I
#880
0I
#890
b00000000000000000000000000101101 :
b00000000000000000000000000101101 <
b00000000000000000000000000011101 >
b00000000000000000000000000100010 @
1I
#900
0I
#910
b00000000000000000000000000101110 :
b00000000000000000000000000101110 <
b00000000000000000000000000011110 >
b00000000000000000000000000100011 @
1I
#920
0I
#930
b00000000000000000000000000101111 :
b00000000000000000000000000101111 <
b00000000000000000000000000011111 >
b00000000000000000000000000100100 @
1I
#940
0I
#950
b00000000000000000000000000110000 :
b00000000000000000000000000110000 <
b00000000000000000000000000100000 >
b00000000000000000000000000100101 @
1I
#960
0I
#970
b00000000000000000000000000110001 :
b00000000000000000000000000110001 <
b00000000000000000000000000100001 >
b00000000000000000000000000100110 @
1I
#980
0I
#990
b00000000000000000000000000110010 :
b00000000000000000000000000110010 <
b00000000000000000000000000100010 >
b00000000000000000000000000100111 @
1I
#1000
0I
#1010
b00000000000000000000000000110011 :
b00000000000000000000000000110011 <
b00000000000000000000000000100011 >
b00000000000000000000000000101000 @
1I
#1020
0I
#1030
b00000000000000000000000000110100 :
b00000000000000000000000000110100 <
b00000000000000000000000000100100 >
b00000000000000000000000000101001 @
1I
#1040
0I
#1050
b00000000000000000000000000110101 :
b00000000000000000000000000110101 <
b00000000000000000000000000100101 >
b00000000000000000000000000101010 @
1I
#1060
0I
#1070
b00000000000000000000000000110110 :
b00000000000000000000000000110110 <
b00000000000000000000000000100110 >
b00000000000000000000000000101011 @
1I
#1080
0I
#1090
b00000000000000000000000000110111 :
b00000000000000000000000000110111 <
b00000000000000000000000000100111 >
b00000000000000000000000000101100 @
1I
#1100
0I
#1110
b00000000000000000000000000111000 :
b00000000000000000000000000111000 <
b00000000000000000000000000101000 >
b00000000000000000000000000101101 @
1I
#1120
0I
#1130
b00000000000000000000000000111001 :
b00000000000000000000000000111001 <
b00000000000000000000000000101001 >
b00000000000000000000000000101110 @
1I
#1140
0I
#1150
b00000000000000000000000000111010 :
b00000000000000000000000000111010 <
b00000000000000000000000000101010 >
b00000000000000000000000000101111 @
1I
#1160
0I
#1170
b00000000000000000000000000111011 :
b00000000000000000000000000111011 <
b00000000000000000000000000101011 >
b00000000000000000000000000110000 @
1I
#1180
0I
#1190
b00000000000000000000000000111100 :
b00000000000000000000000000111100 <
b00000000000000000000000000101100 >
b00000000000000000000000000110001 @
1I
#1200
0I
#1210
b00000000000000000000000000111101 :
b00000000000000000000000000111101 <
b00000000000000000000000000101101 >
b00000000000000000000000000110010 @
1I
#1220
0I
#1230
b00000000000000000000000000111110 :
b00000000000000000000000000111110 <
b00000000000000000000000000101110 >
b00000000000000000000000000110011 @
1I
#1240
0I
#1250
b00000000000000000000000000111111 :
b00000000000000000000000000111111 <
b00000000000000000000000000101111 >
b00000000000000000000000000110100 @
1I
#1260
0I
#1270
b00000000000000000000000001000000 :
b00000000000000000000000001000000 <
b00000000000000000000000000110000 >
b00000000000000000000000000110101 @
1I
#1280
0I
#1290
b00000000000000000000000001000001 :
b00000000000000000000000001000001 <
b00000000000000000000000000110001 >
b00000000000000000000000000110110 @
1I
#1300
0I
#1310
b00000000000000000000000001000010 :
b00000000000000000000000001000010 <
b00000000000000000000000000110010 >
b00000000000000000000000000110111 @
1I
#1320
0I
#1330
b00000000000000000000000001000011 :
b00000000000000000000000001000011 <
b00000000000000000000000000110011 >
b00000000000000000000000000111000 @
1I
#1340
0I
#1350
b00000000000000000000000001000100 :
b00000000000000000000000001000100 <
b00000000000000000000000000110100 >
b00000000000000000000000000111001 @
1I
#1360
0I
#1370
b00000000000000000000000001000101 :
b00000000000000000000000001000101 <
b00000000000000000000000000110101 >
b00000000000000000000000000111010 @
1I
#1380
0I
#1390
b00000000000000000000000001000110 :
b00000000000000000000000001000110 <
b00000000000000000000000000110110 >
b00000000000000000000000000111011 @
1I
#1400
0I
#1410
b00000000000000000000000001000111 :
b00000000000000000000000001000111 <
b00000000000000000000000000110111 >
b00000000000000000000000000111100 @
1I
#1420
0I
#1430
b00000000000000000000000001001000 :
b00000000000000000000000001001000 <
b00000000000000000000000000111000 >
b00000000000000000000000000111101 @
1I
#1440
0I
#1450
b00000000000000000000000001001001 :
b00000000000000000000000001001001 <
b00000000000000000000000000111001 >
b00000000000000000000000000111110 @
1I
#1460
0I
#1470
b00000000000000000000000001001010 :
b00000000000000000000000001001010 <
b00000000000000000000000000111010 >
b00000000000000000000000000111111 @
1I
#1480
0I
#1490
b00000000000000000000000001001011 :
b00000000000000000000000001001011 <
b00000000000000000000000000111011 >
b00000000000000000000000001000000 @
1I
#1500
0I
#1510
b00000000000000000000000001001100 :
b00000000000000000000000001001100 <
b00000000000000000000000000111100 >
b00000000000000000000000001000001 @
1I
#1520
0I
#1530
b00000000000000000000000001001101 :
b00000000000000000000000001001101 <
b00000000000000000000000000111101 >
b00000000000000000000000001000010 @
1I
