test_top_level.vcd
$version Generated by VerilatedVcd $end
$timescale 1ns $end

 $scope module TOP $end
  $scope module top_level_tb $end
   $var wire  1 Q CLOCK50 $end
   $var wire  7 ) HEX0 [6:0] $end
   $var wire  7 * HEX1 [6:0] $end
   $var wire  7 + HEX2 [6:0] $end
   $var wire  7 , HEX3 [6:0] $end
   $var wire  4 # KEY [3:0] $end
   $var wire 18 - LEDR [17:0] $end
   $var wire  4 $ SW [3:0] $end
   $var wire 32 R units [31:0] $end
   $scope module DUT $end
    $var wire  1 Q CLOCK50 $end
    $var wire  7 ) HEX0 [6:0] $end
    $var wire  7 * HEX1 [6:0] $end
    $var wire  7 + HEX2 [6:0] $end
    $var wire  7 , HEX3 [6:0] $end
    $var wire  4 # KEY [3:0] $end
    $var wire 18 - LEDR [17:0] $end
    $var wire  4 $ SW [3:0] $end
    $var wire  1 1 delete $end
    $var wire  1 6 empty $end
    $var wire  1 / execute $end
    $var wire  1 7 full $end
    $var wire  4 5 instruction [3:0] $end
    $var wire  1 3 read_enable $end
    $var wire  1 0 reset $end
    $var wire  1 . save $end
    $var wire 32 S state [31:0] $end
    $var wire  1 8 timer $end
    $var wire  1 4 timer_enable $end
    $var wire  1 2 write_enable $end
    $scope module u_FSM $end
     $var wire  1 Q clk $end
     $var wire  1 6 empty $end
     $var wire  1 / execute $end
     $var wire  1 7 full $end
     $var wire  1 3 read_enable $end
     $var wire  1 0 reset $end
     $var wire  1 . save $end
     $var wire 32 9 state [31:0] $end
     $var wire  1 8 timer $end
     $var wire  1 4 timer_enable $end
     $var wire  1 2 write_enable $end
    $upscope $end
    $scope module u_clock $end
     $var wire  1 Q clk $end
     $var wire 28 : clk_cnt [27:0] $end
     $var wire 32 T delay_val [31:0] $end
     $var wire  1 4 enable $end
     $var wire  1 8 timer $end
    $upscope $end
    $scope module u_debounce0 $end
     $var wire  1 % button $end
     $var wire  1 1 button_edge $end
     $var wire  1 > button_pressed $end
     $var wire  1 = button_q0 $end
     $var wire  1 Q clk $end
     $var wire 32 ; count [31:0] $end
     $var wire  1 < deb $end
     $var wire 32 T delay_val [31:0] $end
    $upscope $end
    $scope module u_debounce1 $end
     $var wire  1 & button $end
     $var wire  1 0 button_edge $end
     $var wire  1 B button_pressed $end
     $var wire  1 A button_q0 $end
     $var wire  1 Q clk $end
     $var wire 32 ? count [31:0] $end
     $var wire  1 @ deb $end
     $var wire 32 T delay_val [31:0] $end
    $upscope $end
    $scope module u_debounce2 $end
     $var wire  1 ' button $end
     $var wire  1 / button_edge $end
     $var wire  1 F button_pressed $end
     $var wire  1 E button_q0 $end
     $var wire  1 Q clk $end
     $var wire 32 C count [31:0] $end
     $var wire  1 D deb $end
     $var wire 32 T delay_val [31:0] $end
    $upscope $end
    $scope module u_debounce3 $end
     $var wire  1 ( button $end
     $var wire  1 . button_edge $end
     $var wire  1 J button_pressed $end
     $var wire  1 I button_q0 $end
     $var wire  1 Q clk $end
     $var wire 32 G count [31:0] $end
     $var wire  1 H deb $end
     $var wire 32 T delay_val [31:0] $end
    $upscope $end
    $scope module u_direction $end
     $var wire  7 ) HEX0 [6:0] $end
     $var wire  7 * HEX1 [6:0] $end
     $var wire  7 + HEX2 [6:0] $end
     $var wire  7 , HEX3 [6:0] $end
     $var wire  2 K direc [1:0] $end
     $var wire  1 4 enable $end
    $upscope $end
    $scope module u_fifo $end
     $var wire 32 U a_width [31:0] $end
     $var wire  1 Q clk $end
     $var wire  4 $ data_in [3:0] $end
     $var wire  4 5 data_out [3:0] $end
     $var wire  1 1 del $end
     $var wire  1 6 empty $end
     $var wire  1 7 full $end
     $var wire  9 L r_ptr [8:0] $end
     $var wire  1 3 re $end
     $var wire  1 0 rst $end
     $var wire  9 M w_ptr [8:0] $end
     $var wire  1 2 we $end
    $upscope $end
    $scope module u_torque $end
     $var wire  1 4 enable $end
     $var wire  4 Z full [3:0] $end
     $var wire  4 X half [3:0] $end
     $var wire  2 K instruction [1:0] $end
     $var wire  9 O left_LED [8:0] $end
     $var wire  4 W quart [3:0] $end
     $var wire  9 P right_LED [8:0] $end
     $var wire  4 Y three_quart [3:0] $end
     $var wire  2 N torque [1:0] $end
     $var wire  4 V zero [3:0] $end
    $upscope $end
   $upscope $end
  $upscope $end
 $upscope $end
$enddefinitions $end


#0
b0000 #
b0000 $
1%
1&
1'
1(
b1111111 )
b1111111 *
b1111111 +
b1111111 ,
b000000000000000000 -
0.
0/
00
01
02
03
04
b0000 5
16
07
08
b00000000000000000000000000000000 9
b0000000000000000000000000000 :
b00000000000000000000000000000000 ;
0<
0=
0>
b00000000000000000000000000000000 ?
0@
0A
0B
b00000000000000000000000000000000 C
0D
0E
0F
b00000000000000000000000000000000 G
0H
0I
0J
b00 K
b000000000 L
b000000000 M
b00 N
b000000000 O
b000000000 P
0Q
b00000000000000000000001111101000 R
b00000000000000000000000000000000 S
b00000000000000000000000000010100 T
b00000000000000000000000000001000 U
b0000 V
b0010 W
b1000 X
b1100 Y
b1111 Z
#10
1<
1@
1D
1H
1Q
#20
0Q
#30
b00000000000000000000000000000001 ;
b00000000000000000000000000000001 ?
b00000000000000000000000000000001 C
b00000000000000000000000000000001 G
1Q
#40
0Q
#50
b00000000000000000000000000000010 ;
b00000000000000000000000000000010 ?
b00000000000000000000000000000010 C
b00000000000000000000000000000010 G
1Q
#60
0Q
#70
b00000000000000000000000000000011 ;
b00000000000000000000000000000011 ?
b00000000000000000000000000000011 C
b00000000000000000000000000000011 G
1Q
#80
0Q
#90
b00000000000000000000000000000100 ;
b00000000000000000000000000000100 ?
b00000000000000000000000000000100 C
b00000000000000000000000000000100 G
1Q
#100
0Q
#110
b00000000000000000000000000000101 ;
b00000000000000000000000000000101 ?
b00000000000000000000000000000101 C
b00000000000000000000000000000101 G
1Q
#120
0Q
#130
b00000000000000000000000000000110 ;
b00000000000000000000000000000110 ?
b00000000000000000000000000000110 C
b00000000000000000000000000000110 G
1Q
#140
0Q
#150
b00000000000000000000000000000111 ;
b00000000000000000000000000000111 ?
b00000000000000000000000000000111 C
b00000000000000000000000000000111 G
1Q
#160
0Q
#170
b00000000000000000000000000001000 ;
b00000000000000000000000000001000 ?
b00000000000000000000000000001000 C
b00000000000000000000000000001000 G
1Q
#180
0Q
#190
b00000000000000000000000000001001 ;
b00000000000000000000000000001001 ?
b00000000000000000000000000001001 C
b00000000000000000000000000001001 G
1Q
#200
0Q
#210
b00000000000000000000000000001010 ;
b00000000000000000000000000001010 ?
b00000000000000000000000000001010 C
b00000000000000000000000000001010 G
1Q
#220
0Q
#230
b00000000000000000000000000001011 ;
b00000000000000000000000000001011 ?
b00000000000000000000000000001011 C
b00000000000000000000000000001011 G
1Q
#240
0Q
#250
b00000000000000000000000000001100 ;
b00000000000000000000000000001100 ?
b00000000000000000000000000001100 C
b00000000000000000000000000001100 G
1Q
#260
0Q
#270
b00000000000000000000000000001101 ;
b00000000000000000000000000001101 ?
b00000000000000000000000000001101 C
b00000000000000000000000000001101 G
1Q
#280
0Q
#290
b00000000000000000000000000001110 ;
b00000000000000000000000000001110 ?
b00000000000000000000000000001110 C
b00000000000000000000000000001110 G
1Q
#300
0Q
#310
b00000000000000000000000000001111 ;
b00000000000000000000000000001111 ?
b00000000000000000000000000001111 C
b00000000000000000000000000001111 G
1Q
#320
0Q
#330
b00000000000000000000000000010000 ;
b00000000000000000000000000010000 ?
b00000000000000000000000000010000 C
b00000000000000000000000000010000 G
1Q
#340
0Q
#350
b00000000000000000000000000010001 ;
b00000000000000000000000000010001 ?
b00000000000000000000000000010001 C
b00000000000000000000000000010001 G
1Q
#360
0Q
#370
b00000000000000000000000000010010 ;
b00000000000000000000000000010010 ?
b00000000000000000000000000010010 C
b00000000000000000000000000010010 G
1Q
#380
0Q
#390
b00000000000000000000000000010011 ;
b00000000000000000000000000010011 ?
b00000000000000000000000000010011 C
b00000000000000000000000000010011 G
1Q
#400
0Q
#410
b00000000000000000000000000010100 ;
b00000000000000000000000000010100 ?
b00000000000000000000000000010100 C
b00000000000000000000000000010100 G
1Q
#420
0Q
#430
1.
1/
10
11
1>
1B
1F
1J
1Q
#440
0Q
#450
0.
0/
00
01
12
b00000000000000000000000000000001 9
1=
1A
1E
1I
1Q
#460
0Q
#470
02
06
b00000000000000000000000000000010 9
b000000001 M
1Q
