test_top_level.vcd
$version Generated by VerilatedVcd $end
$timescale 1ns $end

 $scope module TOP $end
  $scope module top_level_tb $end
   $var wire  1 S CLOCK_50 $end
   $var wire  7 ) HEX0 [6:0] $end
   $var wire  7 * HEX1 [6:0] $end
   $var wire  7 + HEX2 [6:0] $end
   $var wire  7 , HEX3 [6:0] $end
   $var wire  4 # KEY [3:0] $end
   $var wire  9 . LEDG [8:0] $end
   $var wire 18 - LEDR [17:0] $end
   $var wire  5 $ SW [4:0] $end
   $var wire 32 T units [31:0] $end
   $scope module DUT $end
    $var wire  1 S CLOCK_50 $end
    $var wire  7 ) HEX0 [6:0] $end
    $var wire  7 * HEX1 [6:0] $end
    $var wire  7 + HEX2 [6:0] $end
    $var wire  7 , HEX3 [6:0] $end
    $var wire  4 # KEY [3:0] $end
    $var wire  9 . LEDG [8:0] $end
    $var wire 18 - LEDR [17:0] $end
    $var wire  5 $ SW [4:0] $end
    $var wire  1 2 delete $end
    $var wire  1 8 empty $end
    $var wire  1 0 execute $end
    $var wire  1 6 fifo_reset $end
    $var wire  1 9 full $end
    $var wire  5 7 instruction [4:0] $end
    $var wire  1 4 read_enable $end
    $var wire  1 1 reset $end
    $var wire  1 / save $end
    $var wire  1 : timer $end
    $var wire  1 5 timer_enable $end
    $var wire  1 3 write_enable $end
    $scope module u_FSM $end
     $var wire  1 S clk $end
     $var wire  3 < current_state [2:0] $end
     $var wire  1 8 empty $end
     $var wire  1 0 execute $end
     $var wire  1 6 fifo_reset $end
     $var wire  1 9 full $end
     $var wire  3 ; lights [2:0] $end
     $var wire  3 = next_state [2:0] $end
     $var wire  1 4 read_enable $end
     $var wire  1 1 reset $end
     $var wire  1 / save $end
     $var wire  1 : timer $end
     $var wire  1 5 timer_enable $end
     $var wire  1 3 write_enable $end
    $upscope $end
    $scope module u_clock $end
     $var wire  1 S clk $end
     $var wire 28 > clk_cnt [27:0] $end
     $var wire 32 U delay_val [31:0] $end
     $var wire  1 5 enable $end
     $var wire  1 : timer $end
    $upscope $end
    $scope module u_debounce0 $end
     $var wire  1 % button $end
     $var wire  1 2 button_edge $end
     $var wire  1 B button_pressed $end
     $var wire  1 A button_q0 $end
     $var wire  1 S clk $end
     $var wire 32 ? count [31:0] $end
     $var wire  1 @ deb $end
     $var wire 32 V delay_val [31:0] $end
    $upscope $end
    $scope module u_debounce1 $end
     $var wire  1 & button $end
     $var wire  1 1 button_edge $end
     $var wire  1 F button_pressed $end
     $var wire  1 E button_q0 $end
     $var wire  1 S clk $end
     $var wire 32 C count [31:0] $end
     $var wire  1 D deb $end
     $var wire 32 V delay_val [31:0] $end
    $upscope $end
    $scope module u_debounce2 $end
     $var wire  1 ' button $end
     $var wire  1 0 button_edge $end
     $var wire  1 J button_pressed $end
     $var wire  1 I button_q0 $end
     $var wire  1 S clk $end
     $var wire 32 G count [31:0] $end
     $var wire  1 H deb $end
     $var wire 32 V delay_val [31:0] $end
    $upscope $end
    $scope module u_debounce3 $end
     $var wire  1 ( button $end
     $var wire  1 / button_edge $end
     $var wire  1 N button_pressed $end
     $var wire  1 M button_q0 $end
     $var wire  1 S clk $end
     $var wire 32 K count [31:0] $end
     $var wire  1 L deb $end
     $var wire 32 V delay_val [31:0] $end
    $upscope $end
    $scope module u_direction $end
     $var wire  7 ) HEX0 [6:0] $end
     $var wire  7 * HEX1 [6:0] $end
     $var wire  7 + HEX2 [6:0] $end
     $var wire  7 , HEX3 [6:0] $end
     $var wire  2 O direc [1:0] $end
     $var wire  1 5 enable $end
    $upscope $end
    $scope module u_fifo $end
     $var wire 32 W a_width [31:0] $end
     $var wire  1 S clk $end
     $var wire  5 $ data_in [4:0] $end
     $var wire  5 7 data_out [4:0] $end
     $var wire  1 2 del $end
     $var wire  1 8 empty $end
     $var wire  1 9 full $end
     $var wire  9 P r_ptr [8:0] $end
     $var wire  1 4 re $end
     $var wire  1 6 rst $end
     $var wire  9 Q w_ptr [8:0] $end
     $var wire  1 3 we $end
    $upscope $end
    $scope module u_torque $end
     $var wire 18 - LEDR [17:0] $end
     $var wire  1 5 enable $end
     $var wire  2 O instruction [1:0] $end
     $var wire 18 - leds [17:0] $end
     $var wire  3 R torque [2:0] $end
    $upscope $end
   $upscope $end
  $upscope $end
 $upscope $end
$enddefinitions $end


#0
b0000 #
b00000 $
1%
1&
1'
1(
b1111111 )
b1111111 *
b1111111 +
b1111111 ,
b000000000000000000 -
b000000001 .
0/
00
01
02
03
04
05
16
b00000 7
08
09
0:
b001 ;
b000 <
b000 =
b0000000000000000000000000000 >
b00000000000000000000000000000000 ?
0@
0A
0B
b00000000000000000000000000000000 C
0D
0E
0F
b00000000000000000000000000000000 G
0H
0I
0J
b00000000000000000000000000000000 K
0L
0M
0N
b00 O
b000000000 P
b000000000 Q
b000 R
0S
b00000000000000000000001111101000 T
b00000101111101011110000100000000 U
b00000000000000000000000000010100 V
b00000000000000000000000000001000 W
#10
1@
1D
1H
1L
1S
#20
0S
#30
b00000000000000000000000000000001 ?
b00000000000000000000000000000001 C
b00000000000000000000000000000001 G
b00000000000000000000000000000001 K
1S
#40
0S
#50
b00000000000000000000000000000010 ?
b00000000000000000000000000000010 C
b00000000000000000000000000000010 G
b00000000000000000000000000000010 K
1S
#60
0S
#70
b00000000000000000000000000000011 ?
b00000000000000000000000000000011 C
b00000000000000000000000000000011 G
b00000000000000000000000000000011 K
1S
#80
0S
#90
b00000000000000000000000000000100 ?
b00000000000000000000000000000100 C
b00000000000000000000000000000100 G
b00000000000000000000000000000100 K
1S
#100
0S
#110
b00000000000000000000000000000101 ?
b00000000000000000000000000000101 C
b00000000000000000000000000000101 G
b00000000000000000000000000000101 K
1S
#120
0S
#130
b00000000000000000000000000000110 ?
b00000000000000000000000000000110 C
b00000000000000000000000000000110 G
b00000000000000000000000000000110 K
1S
#140
0S
#150
b00000000000000000000000000000111 ?
b00000000000000000000000000000111 C
b00000000000000000000000000000111 G
b00000000000000000000000000000111 K
1S
#160
0S
#170
b00000000000000000000000000001000 ?
b00000000000000000000000000001000 C
b00000000000000000000000000001000 G
b00000000000000000000000000001000 K
1S
#180
0S
#190
b00000000000000000000000000001001 ?
b00000000000000000000000000001001 C
b00000000000000000000000000001001 G
b00000000000000000000000000001001 K
1S
#200
0S
#210
b00000000000000000000000000001010 ?
b00000000000000000000000000001010 C
b00000000000000000000000000001010 G
b00000000000000000000000000001010 K
1S
#220
0S
#230
b00000000000000000000000000001011 ?
b00000000000000000000000000001011 C
b00000000000000000000000000001011 G
b00000000000000000000000000001011 K
1S
#240
0S
#250
b00000000000000000000000000001100 ?
b00000000000000000000000000001100 C
b00000000000000000000000000001100 G
b00000000000000000000000000001100 K
1S
#260
0S
#270
b00000000000000000000000000001101 ?
b00000000000000000000000000001101 C
b00000000000000000000000000001101 G
b00000000000000000000000000001101 K
1S
#280
0S
#290
b00000000000000000000000000001110 ?
b00000000000000000000000000001110 C
b00000000000000000000000000001110 G
b00000000000000000000000000001110 K
1S
#300
0S
#310
b00000000000000000000000000001111 ?
b00000000000000000000000000001111 C
b00000000000000000000000000001111 G
b00000000000000000000000000001111 K
1S
#320
0S
#330
b00000000000000000000000000010000 ?
b00000000000000000000000000010000 C
b00000000000000000000000000010000 G
b00000000000000000000000000010000 K
1S
#340
0S
#350
b00000000000000000000000000010001 ?
b00000000000000000000000000010001 C
b00000000000000000000000000010001 G
b00000000000000000000000000010001 K
1S
#360
0S
#370
b00000000000000000000000000010010 ?
b00000000000000000000000000010010 C
b00000000000000000000000000010010 G
b00000000000000000000000000010010 K
1S
#380
0S
#390
b00000000000000000000000000010011 ?
b00000000000000000000000000010011 C
b00000000000000000000000000010011 G
b00000000000000000000000000010011 K
1S
#400
0S
#410
b00000000000000000000000000010100 ?
b00000000000000000000000000010100 C
b00000000000000000000000000010100 G
b00000000000000000000000000010100 K
1S
#420
0S
#430
1/
10
11
12
b001 =
1B
1F
1J
1N
1S
#440
0S
#450
b000000111 .
0/
00
01
02
13
06
b111 ;
b001 <
b010 =
1A
1E
1I
1M
1S
#460
0S
#470
b000000010 .
03
b010 ;
b010 <
b000000001 Q
1S
